{
  "id" : "0fa1dcbb-dba1-44fb-9c63-9c1e1c6d80c1",
  "name" : "concepts",
  "request" : {
    "url" : "/concepts",
    "method" : "GET"
  },
  "response" : {
    "status" : 200,
    "body" : "{\n  \"_embedded\" : {\n    \"concepts\" : [ {\n      \"id\" : \"fe70dfdf-a4bf-402c-bf79-b8e1f16d107b\",\n      \"uri\" : \"https://fellesdatakatalog.brreg.no/api/concepts/fe70dfdf-a4bf-402c-bf79-b8e1f16d107b\",\n      \"identifier\" : \"https://registrering-begrep-api.fellesdatakatalog.brreg.no/961181399/c12f144e-e9d4-4581-9351-5af37abd8a68\",\n      \"application\" : [ ],\n      \"definition\" : {\n        \"text\" : {\n          \"nn\" : \"ei logisk avgrensa informasjonsmengd som er lagra på eit medium for seinare lesing, lyding, framsyning eller overføring\"\n        },\n        \"source\" : {\n          \"prefLabel\" : {\n            \"nb\" : \"lov 4. desember 1992 nr. 126 om arkiv\"\n          }\n        },\n        \"sourceRelationship\" : \"sitatFraKilde\",\n        \"sources\" : [ {\n          \"text\" : {\n            \"nb\" : \"lov 4. desember 1992 nr. 126 om arkiv\"\n          },\n          \"uri\" : \"https://lovdata.no/lov/1992-12-04-126/§2\"\n        } ]\n      },\n      \"prefLabel\" : {\n        \"nn\" : \"dokument\"\n      },\n      \"altLabel\" : [ ],\n      \"hiddenLabel\" : [ ],\n      \"contactPoint\" : {\n        \"email\" : \"begrep@arkivverket.no\"\n      },\n      \"seeAlso\" : [ ],\n      \"publisher\" : {\n        \"uri\" : \"http://data.brreg.no/enhetsregisteret/enhet/961181399\",\n        \"name\" : \"ARKIVVERKET\",\n        \"orgPath\" : \"/STAT/972417866/961181399\",\n        \"prefLabel\" : {\n          \"no\" : \"Arkivverket\"\n        }\n      },\n      \"harvest\" : {\n        \"firstHarvested\" : \"2020-02-18T07:57:00.170+0000\",\n        \"lastHarvested\" : \"2020-02-18T07:57:00.170+0000\"\n      }\n    }, {\n      \"id\" : \"db0fbd02-f3f8-4d0c-b047-9901e21066da\",\n      \"uri\" : \"https://fellesdatakatalog.brreg.no/api/concepts/db0fbd02-f3f8-4d0c-b047-9901e21066da\",\n      \"identifier\" : \"https://registrering-begrep-api.fellesdatakatalog.brreg.no/961181399/9f3850b8-6eaf-40f3-97b1-7e048d440197\",\n      \"application\" : [ ],\n      \"definition\" : {\n        \"text\" : {\n          \"nb\" : \"lokaler som er spesielt tilpasset langtidslagring av ulike typer arkivmateriale\"\n        },\n        \"source\" : {\n          \"prefLabel\" : {\n            \"nb\" : \"forskrift 19. desember 2017 nr. 2286 om utfyllende tekniske og arkivfaglige bestemmelser om behandling av offentlige arkiver\"\n          }\n        },\n        \"sourceRelationship\" : \"sitatFraKilde\",\n        \"sources\" : [ {\n          \"text\" : {\n            \"nb\" : \"forskrift 19. desember 2017 nr. 2286 om utfyllende tekniske og arkivfaglige bestemmelser om behandling av offentlige arkiver\"\n          },\n          \"uri\" : \"https://lovdata.no/forskrift/2017-12-19-2286/§2-1\"\n        } ]\n      },\n      \"prefLabel\" : {\n        \"nb\" : \"spesialrom for arkiv\"\n      },\n      \"altLabel\" : [ ],\n      \"hiddenLabel\" : [ ],\n      \"contactPoint\" : {\n        \"email\" : \"begrep@arkivverket.no\"\n      },\n      \"seeAlso\" : [ ],\n      \"publisher\" : {\n        \"uri\" : \"http://data.brreg.no/enhetsregisteret/enhet/961181399\",\n        \"name\" : \"ARKIVVERKET\",\n        \"orgPath\" : \"/STAT/972417866/961181399\",\n        \"prefLabel\" : {\n          \"no\" : \"Arkivverket\"\n        }\n      },\n      \"harvest\" : {\n        \"firstHarvested\" : \"2020-02-18T07:57:00.129+0000\",\n        \"lastHarvested\" : \"2020-02-18T07:57:00.129+0000\"\n      }\n    }, {\n      \"id\" : \"2135fe30-36b4-4736-97e3-d530f9af8cf6\",\n      \"uri\" : \"https://fellesdatakatalog.brreg.no/api/concepts/2135fe30-36b4-4736-97e3-d530f9af8cf6\",\n      \"identifier\" : \"https://registrering-begrep-api.fellesdatakatalog.brreg.no/961181399/e7e1a7b2-7463-4f7d-b1d9-b81d4bb6688b\",\n      \"application\" : [ ],\n      \"definition\" : {\n        \"text\" : {\n          \"nb\" : \"dokument som skal inngå i et arkiv\"\n        },\n        \"source\" : {\n          \"prefLabel\" : {\n            \"nb\" : \"forskrift 19. desember 2017 nr. 2286 om utfyllende tekniske og arkivfaglige bestemmelser om behandling av offentlige arkiver\"\n          }\n        },\n        \"sourceRelationship\" : \"sitatFraKilde\",\n        \"sources\" : [ {\n          \"text\" : {\n            \"nb\" : \"forskrift 19. desember 2017 nr. 2286 om utfyllende tekniske og arkivfaglige bestemmelser om behandling av offentlige arkiver\"\n          },\n          \"uri\" : \"https://lovdata.no/forskrift/2017-12-19-2286/§3-1\"\n        } ]\n      },\n      \"prefLabel\" : {\n        \"nb\" : \"arkivdokument\"\n      },\n      \"altLabel\" : [ ],\n      \"hiddenLabel\" : [ ],\n      \"contactPoint\" : {\n        \"email\" : \"begrep@arkivverket.no\"\n      },\n      \"seeAlso\" : [ ],\n      \"publisher\" : {\n        \"uri\" : \"http://data.brreg.no/enhetsregisteret/enhet/961181399\",\n        \"name\" : \"ARKIVVERKET\",\n        \"orgPath\" : \"/STAT/972417866/961181399\",\n        \"prefLabel\" : {\n          \"no\" : \"Arkivverket\"\n        }\n      },\n      \"harvest\" : {\n        \"firstHarvested\" : \"2020-02-18T07:57:00.077+0000\",\n        \"lastHarvested\" : \"2020-02-18T07:57:00.077+0000\"\n      }\n    }, {\n      \"id\" : \"c73de33e-2f15-4b1e-8e1d-5125fe5022e0\",\n      \"uri\" : \"https://fellesdatakatalog.brreg.no/api/concepts/c73de33e-2f15-4b1e-8e1d-5125fe5022e0\",\n      \"identifier\" : \"https://registrering-begrep-api.fellesdatakatalog.brreg.no/961181399/6461722f-7c99-4d8d-ab99-c67eaaab584d\",\n      \"application\" : [ ],\n      \"definition\" : {\n        \"text\" : {\n          \"nb\" : \"dato for når et dokument er ført inn i journalen\"\n        },\n        \"source\" : {\n          \"prefLabel\" : {\n            \"nb\" : \"Noark 5\"\n          }\n        },\n        \"sourceRelationship\" : \"sitatFraKilde\",\n        \"sources\" : [ {\n          \"text\" : {\n            \"nb\" : \"Noark 5\"\n          },\n          \"uri\" : \"\"\n        } ]\n      },\n      \"prefLabel\" : {\n        \"nb\" : \"journalføringsdato\"\n      },\n      \"altLabel\" : [ ],\n      \"hiddenLabel\" : [ ],\n      \"contactPoint\" : {\n        \"email\" : \"begrep@arkivverket.no\"\n      },\n      \"seeAlso\" : [ ],\n      \"publisher\" : {\n        \"uri\" : \"http://data.brreg.no/enhetsregisteret/enhet/961181399\",\n        \"name\" : \"ARKIVVERKET\",\n        \"orgPath\" : \"/STAT/972417866/961181399\",\n        \"prefLabel\" : {\n          \"no\" : \"Arkivverket\"\n        }\n      },\n      \"harvest\" : {\n        \"firstHarvested\" : \"2020-02-18T07:57:00.266+0000\",\n        \"lastHarvested\" : \"2020-02-18T07:57:00.266+0000\"\n      }\n    }, {\n      \"id\" : \"63f46f3b-d921-479f-aedd-72f74d58dc04\",\n      \"uri\" : \"https://fellesdatakatalog.brreg.no/api/concepts/63f46f3b-d921-479f-aedd-72f74d58dc04\",\n      \"identifier\" : \"https://registrering-begrep-api.fellesdatakatalog.brreg.no/991825827/26813bbf-0401-44bf-9e9f-448552cc534c\",\n      \"application\" : [ ],\n      \"definition\" : {\n        \"text\" : {\n          \"nb\" : \"Informasjonsmodell til felles bruk på tvers av virksomheter,  forretningsområder og/eller applikasjonssegmenter\"\n        },\n        \"sources\" : [ ]\n      },\n      \"subject\" : {\n        \"nb\" : \"Informasjonsforvaltning\"\n      },\n      \"prefLabel\" : {\n        \"nb\" : \"Felles informasjonsmodell\"\n      },\n      \"altLabel\" : [ ],\n      \"hiddenLabel\" : [ ],\n      \"contactPoint\" : {\n        \"email\" : \"informasjonsforvaltning@difi.no\"\n      },\n      \"seeAlso\" : [ ],\n      \"publisher\" : {\n        \"uri\" : \"http://data.brreg.no/enhetsregisteret/enhet/991825827\",\n        \"name\" : \"DIGITALISERINGSDIREKTORATET\",\n        \"orgPath\" : \"/STAT/972417858/991825827\",\n        \"prefLabel\" : {\n          \"no\" : \"Direktoratet for forvaltning og IKT\"\n        }\n      },\n      \"harvest\" : {\n        \"firstHarvested\" : \"2020-02-18T07:57:00.317+0000\",\n        \"lastHarvested\" : \"2020-02-18T07:57:00.317+0000\"\n      }\n    }, {\n      \"id\" : \"a80cde42-4741-49a6-8acd-35dd8d359939\",\n      \"uri\" : \"https://fellesdatakatalog.brreg.no/api/concepts/a80cde42-4741-49a6-8acd-35dd8d359939\",\n      \"identifier\" : \"https://registrering-begrep-api.fellesdatakatalog.brreg.no/961181399/b7bf05aa-bc41-41d2-bacb-dc3b0079c0f1\",\n      \"application\" : [ ],\n      \"definition\" : {\n        \"text\" : {\n          \"nb\" : \"institusjon hvor bevaringsverdig arkivmateriale oppbevares permanent\"\n        },\n        \"sourceRelationship\" : \"egendefinert\",\n        \"sources\" : [ ]\n      },\n      \"prefLabel\" : {\n        \"nb\" : \"arkivdepot\"\n      },\n      \"altLabel\" : [ ],\n      \"hiddenLabel\" : [ ],\n      \"contactPoint\" : {\n        \"email\" : \"begrep@arkivverket.no\"\n      },\n      \"seeAlso\" : [ ],\n      \"publisher\" : {\n        \"uri\" : \"http://data.brreg.no/enhetsregisteret/enhet/961181399\",\n        \"name\" : \"ARKIVVERKET\",\n        \"orgPath\" : \"/STAT/972417866/961181399\",\n        \"prefLabel\" : {\n          \"no\" : \"Arkivverket\"\n        }\n      },\n      \"harvest\" : {\n        \"firstHarvested\" : \"2020-02-18T07:56:59.947+0000\",\n        \"lastHarvested\" : \"2020-02-18T07:56:59.947+0000\"\n      }\n    }, {\n      \"id\" : \"63a10320-e385-4377-8f6a-71f497b341c6\",\n      \"uri\" : \"https://fellesdatakatalog.brreg.no/api/concepts/63a10320-e385-4377-8f6a-71f497b341c6\",\n      \"identifier\" : \"https://registrering-begrep-api.fellesdatakatalog.brreg.no/991825827/0a8f2ccf-2a5b-4412-bc6b-2071937d62f3\",\n      \"application\" : [ ],\n      \"definition\" : {\n        \"text\" : {\n          \"nb\" : \"Informasjonsmodell for et avgrensbart/identifiserbart felt/område\"\n        },\n        \"sources\" : [ ]\n      },\n      \"subject\" : {\n        \"nb\" : \"Informasjonsforvaltning\"\n      },\n      \"prefLabel\" : {\n        \"nb\" : \"Domenemodell\"\n      },\n      \"altLabel\" : [ ],\n      \"hiddenLabel\" : [ ],\n      \"contactPoint\" : {\n        \"email\" : \"informasjonsforvaltning@difi.no\"\n      },\n      \"seeAlso\" : [ ],\n      \"publisher\" : {\n        \"uri\" : \"http://data.brreg.no/enhetsregisteret/enhet/991825827\",\n        \"name\" : \"DIGITALISERINGSDIREKTORATET\",\n        \"orgPath\" : \"/STAT/972417858/991825827\",\n        \"prefLabel\" : {\n          \"no\" : \"Direktoratet for forvaltning og IKT\"\n        }\n      },\n      \"harvest\" : {\n        \"firstHarvested\" : \"2020-02-18T07:57:00.146+0000\",\n        \"lastHarvested\" : \"2020-02-18T07:57:00.146+0000\"\n      }\n    }, {\n      \"id\" : \"7015d999-6206-485b-86ae-17bd56e2766a\",\n      \"uri\" : \"https://fellesdatakatalog.brreg.no/api/concepts/7015d999-6206-485b-86ae-17bd56e2766a\",\n      \"identifier\" : \"https://registrering-begrep-api.fellesdatakatalog.brreg.no/991825827/0a22ce03-8eca-4b9a-b1c1-87ab688b028e\",\n      \"application\" : [ ],\n      \"definition\" : {\n        \"text\" : {\n          \"nb\" : \"Meldinger sendt digitalt til en virksomhets postboks hos Altinn\"\n        },\n        \"sources\" : [ ]\n      },\n      \"prefLabel\" : {\n        \"nb\" : \"Digital post til virksomhet\"\n      },\n      \"altLabel\" : [ ],\n      \"hiddenLabel\" : [ ],\n      \"seeAlso\" : [ ],\n      \"publisher\" : {\n        \"uri\" : \"http://data.brreg.no/enhetsregisteret/enhet/991825827\",\n        \"name\" : \"DIGITALISERINGSDIREKTORATET\",\n        \"orgPath\" : \"/STAT/972417858/991825827\",\n        \"prefLabel\" : {\n          \"no\" : \"Direktoratet for forvaltning og IKT\"\n        }\n      },\n      \"harvest\" : {\n        \"firstHarvested\" : \"2020-02-18T07:57:00.231+0000\",\n        \"lastHarvested\" : \"2020-02-18T07:57:00.231+0000\"\n      }\n    }, {\n      \"id\" : \"c3d97f03-5cfe-44f6-a7dd-cdd9808d70a5\",\n      \"uri\" : \"https://fellesdatakatalog.brreg.no/api/concepts/c3d97f03-5cfe-44f6-a7dd-cdd9808d70a5\",\n      \"identifier\" : \"https://registrering-begrep-api.fellesdatakatalog.brreg.no/961181399/ce7faf8b-3889-438d-8d5b-5aad689027d4\",\n      \"application\" : [ ],\n      \"definition\" : {\n        \"text\" : {\n          \"nb\" : \"fysisk overføring av arkivmateriale uten overføring av råderetten\"\n        },\n        \"source\" : {\n          \"prefLabel\" : {\n            \"nb\" : \"forskrift 19. desember 2017 nr. 2286 om utfyllende tekniske og arkivfaglige bestemmelser om behandling av offentlige arkiver\"\n          }\n        },\n        \"sourceRelationship\" : \"sitatFraKilde\",\n        \"sources\" : [ {\n          \"text\" : {\n            \"nb\" : \"forskrift 19. desember 2017 nr. 2286 om utfyllende tekniske og arkivfaglige bestemmelser om behandling av offentlige arkiver\"\n          },\n          \"uri\" : \"https://lovdata.no/forskrift/2017-12-19-2286/§5-2\"\n        } ]\n      },\n      \"prefLabel\" : {\n        \"nb\" : \"deponering\"\n      },\n      \"altLabel\" : [ ],\n      \"hiddenLabel\" : [ ],\n      \"contactPoint\" : {\n        \"email\" : \"begrep@arkivverket.no\"\n      },\n      \"seeAlso\" : [ ],\n      \"publisher\" : {\n        \"uri\" : \"http://data.brreg.no/enhetsregisteret/enhet/961181399\",\n        \"name\" : \"ARKIVVERKET\",\n        \"orgPath\" : \"/STAT/972417866/961181399\",\n        \"prefLabel\" : {\n          \"no\" : \"Arkivverket\"\n        }\n      },\n      \"harvest\" : {\n        \"firstHarvested\" : \"2020-02-18T07:57:00.533+0000\",\n        \"lastHarvested\" : \"2020-02-18T07:57:00.533+0000\"\n      }\n    }, {\n      \"id\" : \"204e3f27-f7c7-43bd-b107-989f22615444\",\n      \"uri\" : \"https://fellesdatakatalog.brreg.no/api/concepts/204e3f27-f7c7-43bd-b107-989f22615444\",\n      \"identifier\" : \"https://registrering-begrep-api.fellesdatakatalog.brreg.no/961181399/b1af69aa-0c56-40ca-ba2d-37f1e920efbf\",\n      \"application\" : [ ],\n      \"definition\" : {\n        \"text\" : {\n          \"nb\" : \"dato som er påført selve dokumentet\"\n        },\n        \"source\" : {\n          \"prefLabel\" : {\n            \"nb\" : \"Noark 5-standarden\"\n          }\n        },\n        \"sourceRelationship\" : \"sitatFraKilde\",\n        \"sources\" : [ {\n          \"text\" : {\n            \"nb\" : \"Noark 5-standarden\"\n          },\n          \"uri\" : \"\"\n        } ]\n      },\n      \"prefLabel\" : {\n        \"nb\" : \"dokumentdato\"\n      },\n      \"altLabel\" : [ ],\n      \"hiddenLabel\" : [ ],\n      \"contactPoint\" : {\n        \"email\" : \"begrep@arkivverket.no\"\n      },\n      \"seeAlso\" : [ ],\n      \"publisher\" : {\n        \"uri\" : \"http://data.brreg.no/enhetsregisteret/enhet/961181399\",\n        \"name\" : \"ARKIVVERKET\",\n        \"orgPath\" : \"/STAT/972417866/961181399\",\n        \"prefLabel\" : {\n          \"no\" : \"Arkivverket\"\n        }\n      },\n      \"harvest\" : {\n        \"firstHarvested\" : \"2020-02-18T07:57:00.444+0000\",\n        \"lastHarvested\" : \"2020-02-18T07:57:00.444+0000\"\n      }\n    } ]\n  },\n  \"page\" : {\n    \"size\" : 10,\n    \"totalElements\" : 3614,\n    \"totalPages\" : 362,\n    \"number\" : 0\n  }\n}",
    "headers" : {
      "Server" : "nginx/1.17.9",
      "Date" : "Sun, 29 Mar 2020 10:04:35 GMT",
      "Content-Type" : "application/json;charset=UTF-8",
      "Vary" : [ "Accept-Encoding", "Accept, Accept-Encoding" ],
      "Via" : "1.1 google",
      "Alt-Svc" : "clear"
    }
  },
  "uuid" : "0fa1dcbb-dba1-44fb-9c63-9c1e1c6d80c1",
  "persistent" : true,
  "insertionIndex" : 9
}