{
  "id" : "918bc592-55a4-4fff-8ec2-c80a66db0fbb",
  "name" : "concepts",
  "request" : {
    "url" : "/concepts",
    "method" : "GET"
  },
  "response" : {
    "status" : 200,
    "body" : "{\n  \"_embedded\" : {\n    \"concepts\" : [ {\n      \"id\" : \"a8ea479a-9b61-4cc2-86e8-650a03a322cc\",\n      \"uri\" : \"https://fellesdatakatalog.brreg.no/api/concepts/a8ea479a-9b61-4cc2-86e8-650a03a322cc\",\n      \"identifier\" : \"https://dataverk.nav.no/begrep/BEGREP-183\",\n      \"application\" : [ ],\n      \"definition\" : {\n        \"text\" : { },\n        \"source\" : {\n          \"prefLabel\" : {\n            \"nb\" : \"LOV-2000-04-14-31 Lov om behandling av personopplysninger (personopplysningsloven) § 2 nr. 2.\"\n          }\n        },\n        \"sourceRelationship\" : \"basertPåKilde\",\n        \"sources\" : [ {\n          \"text\" : {\n            \"nb\" : \"LOV-2000-04-14-31 Lov om behandling av personopplysninger (personopplysningsloven) § 2 nr. 2.\"\n          }\n        } ]\n      },\n      \"subject\" : {\n        \"nb\" : \"['Kunnskapsavdelingen']\"\n      },\n      \"prefLabel\" : {\n        \"nb\" : \"Behandling av personopplysning\"\n      },\n      \"altLabel\" : [ ],\n      \"hiddenLabel\" : [ ],\n      \"contactPoint\" : {\n        \"email\" : \"begrepskatalogen@nav.no\"\n      },\n      \"seeAlso\" : [ ],\n      \"publisher\" : {\n        \"uri\" : \"http://data.brreg.no/enhetsregisteret/enhet/889640782\",\n        \"name\" : \"ARBEIDS- OG VELFERDSETATEN\",\n        \"orgPath\" : \"/STAT/983887457/889640782\",\n        \"prefLabel\" : {\n          \"no\" : \"Arbeids- og velferdsetaten (NAV)\"\n        }\n      },\n      \"harvest\" : {\n        \"firstHarvested\" : \"2020-04-24T08:40:44.435+0000\",\n        \"lastHarvested\" : \"2020-04-29T06:02:54.260+0000\"\n      }\n    }, {\n      \"id\" : \"8831b4e0-66e4-4b3b-8136-0d982aec17a3\",\n      \"uri\" : \"https://fellesdatakatalog.brreg.no/api/concepts/8831b4e0-66e4-4b3b-8136-0d982aec17a3\",\n      \"identifier\" : \"https://dataverk.nav.no/begrep/BEGREP-1404\",\n      \"application\" : [ ],\n      \"definition\" : {\n        \"text\" : {\n          \"nb\" : \"[Innbyggerne|https://dataverk.nav.no/begrep/BEGREP-165] registrerer seg med e-postadresse og/eller mobilnummer i Kontakt- og reservasjonsregisteret og har rett til å endre eller slette registeropplysningen om seg selv. \"\n        },\n        \"source\" : {\n          \"prefLabel\" : {\n            \"nb\" : \"FOR-2004-06-25-988 Forskrift om elektronisk kommunikasjon med og i forvaltningen (eForvaltningsforskriften) § 29\"\n          }\n        },\n        \"sourceRelationship\" : \"basertPåKilde\",\n        \"sources\" : [ {\n          \"text\" : {\n            \"nb\" : \"FOR-2004-06-25-988 Forskrift om elektronisk kommunikasjon med og i forvaltningen (eForvaltningsforskriften) § 29\"\n          }\n        } ]\n      },\n      \"subject\" : {\n        \"nb\" : \"Ytelsesavdelingen\"\n      },\n      \"prefLabel\" : {\n        \"nb\" : \"Digital kontaktinformasjon\"\n      },\n      \"altLabel\" : [ ],\n      \"hiddenLabel\" : [ ],\n      \"contactPoint\" : {\n        \"email\" : \"begrepskatalogen@nav.no\"\n      },\n      \"seeAlso\" : [ ],\n      \"publisher\" : {\n        \"uri\" : \"http://data.brreg.no/enhetsregisteret/enhet/889640782\",\n        \"name\" : \"ARBEIDS- OG VELFERDSETATEN\",\n        \"orgPath\" : \"/STAT/983887457/889640782\",\n        \"prefLabel\" : {\n          \"no\" : \"Arbeids- og velferdsetaten (NAV)\"\n        }\n      },\n      \"harvest\" : {\n        \"firstHarvested\" : \"2020-04-24T08:40:40.159+0000\",\n        \"lastHarvested\" : \"2020-05-08T06:02:37.892+0000\"\n      }\n    }, {\n      \"id\" : \"03b58e56-3ba4-4d7d-9334-4cd23b629207\",\n      \"uri\" : \"https://fellesdatakatalog.brreg.no/api/concepts/03b58e56-3ba4-4d7d-9334-4cd23b629207\",\n      \"identifier\" : \"https://dataverk.nav.no/begrep/BEGREP-2067\",\n      \"application\" : [ ],\n      \"definition\" : {\n        \"text\" : {\n          \"nb\" : \"Konteksten for dette begrepet er grunnleggende personopplysninger i NAV. I [persondataløsningen |https://jira.adeo.no/browse/BEGREP-2189]brukes kilde om enten: * en norsk institusjon, eller * en utenlandsk institusjon, eller * brukeren selv eller en representant for denne.Folkeregisteret er i en del tilfeller bare registerfører for andre institusjoner. I slike tilfeller er det Folkeregisterets kilde som er interessant for NAV.\"\n        },\n        \"sourceRelationship\" : \"basertPåKilde\",\n        \"sources\" : [ {\n          \"text\" : {\n            \"nb\" : \"\"\n          }\n        } ]\n      },\n      \"subject\" : {\n        \"nb\" : \"Ytelsesavdelingen\"\n      },\n      \"prefLabel\" : {\n        \"nb\" : \"Kilde\"\n      },\n      \"altLabel\" : [ ],\n      \"hiddenLabel\" : [ ],\n      \"contactPoint\" : {\n        \"email\" : \"begrepskatalogen@nav.no\"\n      },\n      \"seeAlso\" : [ ],\n      \"publisher\" : {\n        \"uri\" : \"http://data.brreg.no/enhetsregisteret/enhet/889640782\",\n        \"name\" : \"ARBEIDS- OG VELFERDSETATEN\",\n        \"orgPath\" : \"/STAT/983887457/889640782\",\n        \"prefLabel\" : {\n          \"no\" : \"Arbeids- og velferdsetaten (NAV)\"\n        }\n      },\n      \"harvest\" : {\n        \"firstHarvested\" : \"2020-04-24T08:40:47.057+0000\",\n        \"lastHarvested\" : \"2020-05-08T06:02:43.381+0000\"\n      }\n    }, {\n      \"id\" : \"44c924de-b7f8-4dd1-87f1-7473034604d0\",\n      \"uri\" : \"https://fellesdatakatalog.brreg.no/api/concepts/44c924de-b7f8-4dd1-87f1-7473034604d0\",\n      \"identifier\" : \"https://nav.no/begrep/Sindre_Spesial_3\",\n      \"application\" : [ ],\n      \"definition\" : {\n        \"text\" : {\n          \"nb\" : \"en kategori som beskriver behovet til brukere med nedsatt arbeidsevne, som vil kunne komme i arbeid gjennom egeninnsats og en innsats fra NAV eller andre samarbeidende aktører.\"\n        },\n        \"remark\" : {\n          \"nb\" : \"\\\"Spesielt tilpasset innsats tilbys brukere som etter en arbeidsevnevurdering har fått fastslått at arbeidsevnen er nedsatt, samtidig som det legges til grunn at brukeren vil kunne skaffe seg eller beholde arbeid gjennom egeninnsats og en innsats fra NAV eller andre samarbeidende aktører. Det presiseres at det skal legges til grunn en vid tolkning av brukers mulighet til å skaffe seg eller beholde arbeid...]. \\n\\nUtfallet innebærer at innsatsen fra NAV kan omfatte både aktiviteter og tjenester av både kortere og lengre varighet i tillegg til de generelle tjenestene. NAVs innsats vil ofte skje i kombinasjon med virkemidler fra andre, for eksempel medisinsk behandling og rehabilitering, tilrettelegging, sosial trening eller] oppfølging. Brukeren har rett til å delta i utformingen av en aktivitetsplan, eventuelt et kvalifiseringsprogram.\\\"\"\n        },\n        \"source\" : {\n          \"prefLabel\" : {\n            \"nb\" : \"LOV-2006-06-16-20 Lov om arbeids- og velferdsforvaltningen (arbeids- og velferdsforvaltningsloven) NAV-loven] § 14a; \\n\\\"Spesielt tilpasset innsats\\\". I: Retningslinjer for oppfølgingsvedtak i NAV s. 5 - 6. Hentet 6. april 2016 fra https://navet.adeo.no/ansatt/Fag/Arbeid+og+aktivitet/Relatert+innhold/retningslinjer-14a\"\n          }\n        },\n        \"sources\" : [ {\n          \"text\" : {\n            \"nb\" : \"LOV-2006-06-16-20 Lov om arbeids- og velferdsforvaltningen (arbeids- og velferdsforvaltningsloven) NAV-loven] § 14a; \\n\\\"Spesielt tilpasset innsats\\\". I: Retningslinjer for oppfølgingsvedtak i NAV s. 5 - 6. Hentet 6. april 2016 fra https://navet.adeo.no/ansatt/Fag/Arbeid+og+aktivitet/Relatert+innhold/retningslinjer-14a\"\n          }\n        } ]\n      },\n      \"prefLabel\" : {\n        \"nb\" : \"Standardinnsats SPES\"\n      },\n      \"altLabel\" : [ ],\n      \"hiddenLabel\" : [ {\n        \"nb\" : \"Ordinær bistand\"\n      } ],\n      \"example\" : {\n        \"nb\" : \"Standardinnsats tilbys \\\"...]eksempelvis jobbsøkere med kvalifikasjoner som er etterspurt i arbeidsmarkedet, jobbskiftere og nyutdannede ...]\\\". \\n\"\n      },\n      \"seeAlso\" : [ ],\n      \"publisher\" : {\n        \"uri\" : \"http://data.brreg.no/enhetsregisteret/enhet/910298062\",\n        \"name\" : \"KARMSUND OG KYSNESSTRAND REVISJON\",\n        \"orgPath\" : \"/ANNET/910298062\"\n      },\n      \"harvest\" : {\n        \"firstHarvested\" : \"2020-04-21T12:26:21.823+0000\",\n        \"lastHarvested\" : \"2020-06-17T12:00:03.220+0000\"\n      }\n    }, {\n      \"id\" : \"85b3711b-02ad-4c3f-9d9e-67bc052ac205\",\n      \"uri\" : \"https://fellesdatakatalog.brreg.no/api/concepts/85b3711b-02ad-4c3f-9d9e-67bc052ac205\",\n      \"identifier\" : \"https://nav.no/begrep/Sindre_Spesial_11\",\n      \"application\" : [ ],\n      \"definition\" : {\n        \"text\" : {\n          \"nb\" : \"en ytelse som skal kompensere for bortfall av arbeidsinntekt for brukere som har omsorgen for et barn som på grunn av sykdom, skade eller lyte trenger kontinuerlig tilsyn og pleie i en periode, eller i forbindelse med pleie av en nærstående i livets sluttfase.\"\n        },\n        \"remark\" : {\n          \"nb\" : \"Pleiepenger gis til personer med omsorg for: \\n- barn som er under 18 år, og barnet har en sykdom, skade eller lyte som fører til at barnet trenger kontinuerlig tilsyn og pleie. \\n- barn med en utviklingshemning og som har en livstruende eller annen svært alvorlig sykdom eller skade, uten hensyn til aldersgrensen på 18 år. \\n\\nPleiepenger kan gis til en person i 60 dager, som i hjemmet pleier en nærstående i livets sluttfase.\"\n        },\n        \"source\" : {\n          \"prefLabel\" : {\n            \"nb\" : \"LOV-1997-02-28-19 Lov om folketrygd (folketrygdloven) §§ 9-10, 9-11 og 9-13.\"\n          }\n        },\n        \"sources\" : [ {\n          \"text\" : {\n            \"nb\" : \"LOV-1997-02-28-19 Lov om folketrygd (folketrygdloven) §§ 9-10, 9-11 og 9-13.\"\n          }\n        } ]\n      },\n      \"prefLabel\" : {\n        \"nb\" : \"Pleiepenger SPES\"\n      },\n      \"altLabel\" : [ ],\n      \"hiddenLabel\" : [ ],\n      \"seeAlso\" : [ ],\n      \"publisher\" : {\n        \"uri\" : \"http://data.brreg.no/enhetsregisteret/enhet/910298062\",\n        \"name\" : \"KARMSUND OG KYSNESSTRAND REVISJON\",\n        \"orgPath\" : \"/ANNET/910298062\"\n      },\n      \"harvest\" : {\n        \"firstHarvested\" : \"2020-04-21T12:26:21.416+0000\",\n        \"lastHarvested\" : \"2020-06-17T12:00:02.964+0000\"\n      }\n    }, {\n      \"id\" : \"927a2453-d937-44c7-95bd-4b13b56eb996\",\n      \"uri\" : \"https://fellesdatakatalog.brreg.no/api/concepts/927a2453-d937-44c7-95bd-4b13b56eb996\",\n      \"identifier\" : \"https://nav.no/begrep/Sindre_Spesial_9\",\n      \"application\" : [ ],\n      \"definition\" : {\n        \"text\" : {\n          \"nb\" : \"\\\"forpliktelse til å stå til rette for noe.\\\"\"\n        },\n        \"remark\" : {\n          \"nb\" : \"Ansvar kan innebære at man har en forpliktelse til å utføre et konkret gjøremål. Man kan også få et ansvar ved å unnlate å utføre noe.\"\n        },\n        \"source\" : {\n          \"prefLabel\" : {\n            \"nb\" : \"\\\"Ansvar\\\". I: Bokmålsordboka på nett. Hentet 27. april 2015 fra www.sprakradet.no.\"\n          }\n        },\n        \"sources\" : [ {\n          \"text\" : {\n            \"nb\" : \"\\\"Ansvar\\\". I: Bokmålsordboka på nett. Hentet 27. april 2015 fra www.sprakradet.no.\"\n          }\n        } ]\n      },\n      \"prefLabel\" : {\n        \"nb\" : \"Ansvar SPES\"\n      },\n      \"altLabel\" : [ ],\n      \"hiddenLabel\" : [ ],\n      \"seeAlso\" : [ ],\n      \"publisher\" : {\n        \"uri\" : \"http://data.brreg.no/enhetsregisteret/enhet/910298062\",\n        \"name\" : \"KARMSUND OG KYSNESSTRAND REVISJON\",\n        \"orgPath\" : \"/ANNET/910298062\"\n      },\n      \"harvest\" : {\n        \"firstHarvested\" : \"2020-04-21T12:26:22.052+0000\",\n        \"lastHarvested\" : \"2020-06-17T12:00:03.298+0000\"\n      }\n    }, {\n      \"id\" : \"046aaaae-0bee-46d6-82b5-40a898a12b63\",\n      \"uri\" : \"https://fellesdatakatalog.brreg.no/api/concepts/046aaaae-0bee-46d6-82b5-40a898a12b63\",\n      \"identifier\" : \"http://begrepskatalogen/begrep/6b41c6cf-50cd-11e7-b7c5-005056821322\",\n      \"application\" : [ ],\n      \"definition\" : {\n        \"text\" : {\n          \"nb\" : \"skattepliktige som skal levere skattemelding til Sentralskattekontoret for utenlandssaker (SFU).\"\n        },\n        \"remark\" : {\n          \"nb\" : \"Sentralskattekontoret for utenlandssaker (SFU) beregner skatten for utenlandske virksomheter og deres utenlandske ansatte ved oppdrag/arbeid i Norge eller på norsk sokkel. I tillegg beregner SFU skatten for sokkelarbeidere bosatt i utlandet, utenlandske sjøfolk på norskregistrerte skip og utenlandske artister. SFU har også ansvar for nordisk trekkavtale.\"\n        },\n        \"sources\" : [ ]\n      },\n      \"subject\" : {\n        \"nb\" : \"Skatteforvaltningsloven\"\n      },\n      \"prefLabel\" : {\n        \"nb\" : \"skattepliktige som skal levere skattemelding til Sentralskattekontoret for utenlandssaker\"\n      },\n      \"altLabel\" : [ ],\n      \"hiddenLabel\" : [ {\n        \"nb\" : \"skattytere som er gjenstand for sentral ligning ved Sentralskattekontoret for utenlandssaker\"\n      } ],\n      \"contactPoint\" : {\n        \"email\" : \"begrepskatalogen@skatteetaten.no\"\n      },\n      \"seeAlso\" : [ ],\n      \"publisher\" : {\n        \"uri\" : \"http://data.brreg.no/enhetsregisteret/enhet/974761076\",\n        \"name\" : \"SKATTEETATEN\",\n        \"orgPath\" : \"/STAT/972417807/974761076\",\n        \"prefLabel\" : {\n          \"no\" : \"SKATTEETATEN\"\n        }\n      },\n      \"harvest\" : {\n        \"firstHarvested\" : \"2020-04-21T12:26:32.921+0000\",\n        \"lastHarvested\" : \"2020-06-17T12:00:11.487+0000\"\n      }\n    }, {\n      \"id\" : \"ed6c8e1b-ff55-4097-a0e7-56b8c86c532e\",\n      \"uri\" : \"https://fellesdatakatalog.brreg.no/api/concepts/ed6c8e1b-ff55-4097-a0e7-56b8c86c532e\",\n      \"identifier\" : \"http://begrepskatalogen/begrep/8ef7c473-0ef8-11e7-a910-005056821322\",\n      \"application\" : [ ],\n      \"definition\" : {\n        \"text\" : {\n          \"nb\" : \"informasjon om en sak i et arkiv- og saksbehandlingssystem som beskriver dens tilhøringhet til en arkivdel, behandlingsstatus, verdi i et klassifikasjonssystem og behandlingsansvarlig\"\n        },\n        \"sources\" : [ ]\n      },\n      \"subject\" : {\n        \"nb\" : \"Arkiv\"\n      },\n      \"prefLabel\" : {\n        \"nb\" : \"saksopplysning\"\n      },\n      \"altLabel\" : [ ],\n      \"hiddenLabel\" : [ ],\n      \"contactPoint\" : {\n        \"email\" : \"begrepskatalogen@skatteetaten.no\"\n      },\n      \"validFromIncluding\" : \"2017-03-01\",\n      \"validToIncluding\" : \"2022-03-01\",\n      \"seeAlso\" : [ ],\n      \"publisher\" : {\n        \"uri\" : \"http://data.brreg.no/enhetsregisteret/enhet/974761076\",\n        \"name\" : \"SKATTEETATEN\",\n        \"orgPath\" : \"/STAT/972417807/974761076\",\n        \"prefLabel\" : {\n          \"no\" : \"SKATTEETATEN\"\n        }\n      },\n      \"harvest\" : {\n        \"firstHarvested\" : \"2020-04-21T12:26:32.091+0000\",\n        \"lastHarvested\" : \"2020-06-17T12:00:10.972+0000\"\n      }\n    }, {\n      \"id\" : \"3a5dc2d7-0198-4bdb-97ef-a3147d80dd3a\",\n      \"uri\" : \"https://fellesdatakatalog.brreg.no/api/concepts/3a5dc2d7-0198-4bdb-97ef-a3147d80dd3a\",\n      \"identifier\" : \"http://begrepskatalogen/begrep/367f2cd8-a9e1-11e8-8514-005056821322\",\n      \"application\" : [ ],\n      \"definition\" : {\n        \"text\" : {\n          \"nb\" : \"skattepliktig som har fått innvilget søknad om skattebegrensning  etter skatteloven § 17-4. Indikator på at skattebegrensning – liten skattevne vil bli maskinelt beregnet\"\n        },\n        \"sources\" : [ ]\n      },\n      \"subject\" : {\n        \"nb\" : \"Formues- og inntektsskatt\"\n      },\n      \"prefLabel\" : {\n        \"nb\" : \"vurderes for skattebegrensning paragraf 17 liten skatteevne\"\n      },\n      \"altLabel\" : [ ],\n      \"hiddenLabel\" : [ ],\n      \"contactPoint\" : {\n        \"email\" : \"begrepskatalogen@skatteetaten.no\"\n      },\n      \"seeAlso\" : [ ],\n      \"publisher\" : {\n        \"uri\" : \"http://data.brreg.no/enhetsregisteret/enhet/974761076\",\n        \"name\" : \"SKATTEETATEN\",\n        \"orgPath\" : \"/STAT/972417807/974761076\",\n        \"prefLabel\" : {\n          \"no\" : \"SKATTEETATEN\"\n        }\n      },\n      \"harvest\" : {\n        \"firstHarvested\" : \"2020-04-21T12:26:31.268+0000\",\n        \"lastHarvested\" : \"2020-06-17T12:00:10.730+0000\"\n      }\n    }, {\n      \"id\" : \"e66359ab-b34b-44f7-a9ab-35782298f218\",\n      \"uri\" : \"https://fellesdatakatalog.brreg.no/api/concepts/e66359ab-b34b-44f7-a9ab-35782298f218\",\n      \"identifier\" : \"http://begrepskatalogen/begrep/dbd77a8e-4fa9-11e9-80b4-0050568204d6\",\n      \"application\" : [ ],\n      \"definition\" : {\n        \"text\" : {\n          \"nb\" : \"forrige medeier som deltok i registrering for kjøretøy\"\n        },\n        \"sourceRelationship\" : \"egendefinert\",\n        \"sources\" : [ ]\n      },\n      \"subject\" : {\n        \"nb\" : \"Motorvogn\"\n      },\n      \"prefLabel\" : {\n        \"nb\" : \"forrige registrerte medeier\"\n      },\n      \"altLabel\" : [ ],\n      \"hiddenLabel\" : [ ],\n      \"contactPoint\" : {\n        \"email\" : \"begrepskatalogen@skatteetaten.no\"\n      },\n      \"seeAlso\" : [ ],\n      \"publisher\" : {\n        \"uri\" : \"http://data.brreg.no/enhetsregisteret/enhet/974761076\",\n        \"name\" : \"SKATTEETATEN\",\n        \"orgPath\" : \"/STAT/972417807/974761076\",\n        \"prefLabel\" : {\n          \"no\" : \"SKATTEETATEN\"\n        }\n      },\n      \"harvest\" : {\n        \"firstHarvested\" : \"2020-04-21T12:26:31.385+0000\",\n        \"lastHarvested\" : \"2020-06-17T12:00:10.803+0000\"\n      }\n    } ]\n  },\n  \"page\" : {\n    \"size\" : 10,\n    \"totalElements\" : 4264,\n    \"totalPages\" : 427,\n    \"number\" : 0\n  }\n}",
    "headers" : {
      "Server" : "nginx/1.19.0",
      "Date" : "Wed, 17 Jun 2020 12:55:37 GMT",
      "Content-Type" : "application/json;charset=UTF-8",
      "Vary" : [ "Accept-Encoding", "Accept, Accept-Encoding" ],
      "Via" : "1.1 google",
      "Alt-Svc" : "clear"
    }
  },
  "uuid" : "918bc592-55a4-4fff-8ec2-c80a66db0fbb",
  "persistent" : true,
  "insertionIndex" : 3
}